\relax 
\@writefile{toc}{\contentsline {section}{\numberline {1}System Control Flow}{1}}
\@writefile{lof}{\contentsline {figure}{\numberline {1}{\ignorespaces System overview}}{1}}
\@writefile{lof}{\contentsline {figure}{\numberline {2}{\ignorespaces Configuration overview}}{2}}
\@writefile{lof}{\contentsline {figure}{\numberline {3}{\ignorespaces When the emulator runs}}{3}}
\@writefile{toc}{\contentsline {section}{\numberline {2}Data Structures}{4}}
\@writefile{toc}{\contentsline {subsection}{\numberline {2.1}Data Memory}{4}}
\@writefile{toc}{\contentsline {subsection}{\numberline {2.2}Registers}{4}}
\@writefile{toc}{\contentsline {section}{\numberline {3}Algorithms}{5}}
\@writefile{toc}{\contentsline {subsection}{\numberline {3.1}How the program is run}{5}}
\@writefile{toc}{\contentsline {subsection}{\numberline {3.2}Alphabetical Input from Keypad}{5}}
\@writefile{toc}{\contentsline {subsection}{\numberline {3.3}Timing}{6}}
\@writefile{toc}{\contentsline {section}{\numberline {4}Module Specifications}{7}}
\@writefile{toc}{\contentsline {subsection}{\numberline {4.1}Module Overview}{7}}
\@writefile{toc}{\contentsline {subsection}{\numberline {4.2}Reset module}{7}}
\@writefile{toc}{\contentsline {subsection}{\numberline {4.3}Configuration module}{7}}
\@writefile{toc}{\contentsline {subsection}{\numberline {4.4}Character input module}{7}}
\@writefile{toc}{\contentsline {subsection}{\numberline {4.5}Number input module}{7}}
\@writefile{toc}{\contentsline {subsection}{\numberline {4.6}Simulation module}{7}}
\@writefile{toc}{\contentsline {subsection}{\numberline {4.7}Main Timer module}{7}}
\@writefile{toc}{\contentsline {subsection}{\numberline {4.8}Emergency module}{8}}
