\relax 
\@writefile{toc}{\contentsline {section}{\numberline {1}About the emulator}{1}}
\@writefile{toc}{\contentsline {subsection}{\numberline {1.1}Introduction}{1}}
\@writefile{toc}{\contentsline {subsection}{\numberline {1.2}The Monorail Environment}{1}}
\@writefile{toc}{\contentsline {subsection}{\numberline {1.3}Monorail Configuration Constraints}{1}}
\@writefile{toc}{\contentsline {section}{\numberline {2}Pin Configuration}{1}}
\@writefile{toc}{\contentsline {section}{\numberline {3}Controls}{3}}
\@writefile{toc}{\contentsline {subsection}{\numberline {3.1}Keypad: Alphabetical Mode}{3}}
\@writefile{toc}{\contentsline {subsection}{\numberline {3.2}Keypad: Numerical Mode}{3}}
\@writefile{toc}{\contentsline {subsection}{\numberline {3.3}Unique Keys}{3}}
\newlabel{keys}{{3.3}{3}}
\@writefile{toc}{\contentsline {section}{\numberline {4}Displays}{4}}
\@writefile{toc}{\contentsline {subsection}{\numberline {4.1}During monorail configuration:}{4}}
\@writefile{toc}{\contentsline {subsection}{\numberline {4.2}After monorail configuration:}{4}}
